{
  "@context": "http://www.w3.org/ns/anno.jsonld",
  "id": "http://example.org/page1",
  "type": "AnnotationPage",
  "partOf": {
    "id": "https://stephenwf.github.io/ocean-liners.json",
    "label": "Steampunk Annotations",
    "total": 42023
  },
  "next": "http://example.org/page2",
  "startIndex": 0,
  "items":[
              {
                "id": "https://iiif.vam.ac.uk/collections/O1023003/annopage/p1/a1",
                "type": "Annotation",
                "motivation": "describing",
                "body": {
                  "type": "TextualBody",
                  "value": "<h2 class=\"annotatedzoom-annotation-detail__label\">First-class lounge</h2><div class=\"annotatedzoom-annotation-detail__content\"><img class=\"annotatedzoom-annotation-detail__image\" src=\"https://media.vam.ac.uk/feature/annotatedzoom/O1023003/Aquitania-lounge-drawing-room-cropped.jpg\" width=300 height=250/><p>First-class public rooms were located in the centre of the ship &mdash; the most stable and comfortable areas on board. The <i>Aquitania</i>'s opulent interiors were inspired by classical architecture &ndash; spot the Ionic columns in the lounge. Architect Arthur Davis recommended the use of plaster and papier-m&acirc;ch&eacute; for ceilings, domes, and other decorative moulding, but advised against using marble and brickwork, as these would make the ship top-heavy.</p><p class=\"annotatedzoom-annotation-detail__credit\">Photograph from <em>The New Art of Going Abroad</em>, 1929, US. National Art Library: 38041986015030. &copy; Victoria and Albert Museum, London</p></div>",
                  "format": "text/html"
                },
                "target": {
                  "id": "https://iiif.vam.ac.uk/collections/O1023003/canvas/c0#xywh=1800,2000,500,500",
                  "type": "Canvas"
                }
              },
              {
                "id": "https://iiif.vam.ac.uk/collections/O1023003/annopage/p1/a2",
                "type": "Annotation",
                "motivation": "describing",
                "body": {
                  "type": "TextualBody",
                  "value": "<h2 class=\"annotatedzoom-annotation-detail__label\">Garden lounge</h2><div class=\"annotatedzoom-annotation-detail__content\"><img class=\"annotatedzoom-annotation-detail__image\" src=\"https://media.vam.ac.uk/feature/annotatedzoom/O1023003/2017KE6202-Aquitania-Garden-Lounge-cropped.jpg\" width=300 height=250/><p>&ldquo;As cool, as restful, as any terrace overlooking a rose-garden.&rdquo; (<i>The New Art of Going Abroad</i>, 1929). Overlooking the sea and decorated with palms, the garden lounge was a fashionable place to have tea and was sometimes used for dancing.</p><p class=\"annotatedzoom-annotation-detail__credit\">Photograph from <em>The New Art of Going Abroad</em>, 1929, US. National Art Library: 38041986015030. &copy; Victoria and Albert Museum, London</p></div>",
                  "format": "text/html"
                },
                "target": {
                  "id": "https://iiif.vam.ac.uk/collections/O1023003/canvas/c0#xywh=3000,2100,100,200",
                  "type": "Canvas"
                }
              },
              {
                "id": "https://iiif.vam.ac.uk/collections/O1023003/annopage/p1/a3",
                "type": "Annotation",
                "motivation": "describing",
                "body": {
                  "type": "TextualBody",
                  "value": "<h2 class=\"annotatedzoom-annotation-detail__label\">First-class restaurant</h2><div class=\"annotatedzoom-annotation-detail__content\"><img class=\"annotatedzoom-annotation-detail__image\" src=\"https://media.vam.ac.uk/feature/annotatedzoom/O1023003/2017KE6204-Aquitania-restaurant-cropped.jpg\" width=300 height=250/><p>Dining on ocean liners was a radically different experience depending on the class of travel. In first class, the <i>Aquitania</i>&#39;s Louis XVI-style dining room offered seating in small isolated groups, echoing elegant restaurants on land. The ship&#39;s architect, Arthur Davis, explained that a &ldquo;cheerful room with comfortable surroundings&rdquo; was a necessary distraction from &ldquo;the often very unpleasant conditions&rdquo; at sea. </p><p class=\"annotatedzoom-annotation-detail__credit\">Photograph from <em>The New Art of Going Abroad</em>, 1929, US. National Art Library: 38041986015030. &copy; Victoria and Albert Museum, London</p></div>",
                  "format": "text/html"
                },
                "target": {
                  "id": "https://iiif.vam.ac.uk/collections/O1023003/canvas/c0#xywh=2000,2800,400,400",
                  "type": "Canvas"
                }
              },
              {
                "id": "https://iiif.vam.ac.uk/collections/O1023003/annopage/p1/a4",
                "type": "Annotation",
                "motivation": "describing",
                "body": {
                  "type": "TextualBody",
                  "value": "<h2 class=\"annotatedzoom-annotation-detail__label\">First-class state room</h2><div class=\"annotatedzoom-annotation-detail__content\"><img class=\"annotatedzoom-annotation-detail__image\" src=\"https://media.vam.ac.uk/feature/annotatedzoom/O1023003/2017KE6205-state-rooms-on-B-deck-+-D-deck-cropped.jpg\" width=300 height=250/><p>The <i>Aquitania</i>&#39;s first-class cabins were designed by architect Arthur Davis, whose firm, Mew&egrave;s and Davis Architects, had decorated the famously opulent Ritz hotels in Paris and London. The cabins were &ldquo;as spacious as a bedroom at the Ritz or the Barclay. The walls are panelled in grey silk. The carpets are vibrant blue and yellow, as are also the striped silk chair coverings. Note the bath &mdash; just off-stage, and the electric heater&rdquo;. (<i>The New Art of Going Abroad</i>, 1929).</p><p class=\"annotatedzoom-annotation-detail__credit\">Photograph from <em>The New Art of Going Abroad</em>, 1929, US. National Art Library: 38041986015030. &copy; Victoria and Albert Museum, London</p></div>",
                  "format": "text/html"
                },
                "target": {
                  "id": "https://iiif.vam.ac.uk/collections/O1023003/canvas/c0#xywh=1400,2500,100,200",
                  "type": "Canvas"
                }
              },
              {
                "id": "https://iiif.vam.ac.uk/collections/O1023003/annopage/p1/a5",
                "type": "Annotation",
                "motivation": "describing",
                "body": {
                  "type": "TextualBody",
                  "value": "<h2 class=\"annotatedzoom-annotation-detail__label\">Third-class dining saloon</h2><div class=\"annotatedzoom-annotation-detail__content\"><p>While extravagant dishes and refined delicacies were served in first class, third-class meals were less sophisticated. A third-class lunch on a Cunard ship in the 1920s could include rice soup, boiled haddock or braised beef with cabbage, boiled potatoes, bread and &lsquo;cabin biscuits&rsquo;, followed by bread and butter pudding. To save space, passengers sat at long communal tables on chairs bolted to the floor, in case of bad weather.</p></div>",
                  "format": "text/html"
                },
                "target": {
                  "id": "https://iiif.vam.ac.uk/collections/O1023003/canvas/c0#xywh=2450,3800,100,200",
                  "type": "Canvas"
                }
              },
              {
                "id": "https://iiif.vam.ac.uk/collections/O1023003/annopage/p1/a6",
                "type": "Annotation",
                "motivation": "describing",
                "body": {
                  "type": "TextualBody",
                  "value": "<h2 class=\"annotatedzoom-annotation-detail__label\">Third-class four berth room</h2><div class=\"annotatedzoom-annotation-detail__content\"><p>Liners were strictly organised spaces which reflected social hierarchies. Although people travelling in third class could account for 60% of the total number of passengers, they were segregated into a relatively small space in the lower decks of the ship, close to the noisy engine room. These four-berth rooms had none of the luxurious furnishings or fabrics found in first class, but they were an improvement on the communal sleeping quarters provided for steerage-class passengers on earlier liners.</p></div>",
                  "format": "text/html"
                },
                "target": {
                  "id": "https://iiif.vam.ac.uk/collections/O1023003/canvas/c0#xywh=800,3500,100,200",
                  "type": "Canvas"
                }
              },
              {
                "id": "https://iiif.vam.ac.uk/collections/O1023003/annopage/p1/a7",
                "type": "Annotation",
                "motivation": "describing",
                "body": {
                  "type": "TextualBody",
                  "value": "<h2 class=\"annotatedzoom-annotation-detail__label\">Boiler room</h2><div class=\"annotatedzoom-annotation-detail__content\"><p>In 1919 the <i>Aquitania</i> was refitted and converted from coal-burning to oil-burning engines, which meant fewer crew were required to labour in the engine room.</p></div>",
                  "format": "text/html"
                },
                "target": {
                  "id": "https://iiif.vam.ac.uk/collections/O1023003/canvas/c0#xywh=2500,4500,500,800",
                  "type": "Canvas"
                }
              },
              {
                "id": "https://iiif.vam.ac.uk/collections/O1023003/annopage/p1/a8",
                "type": "Annotation",
                "motivation": "describing",
                "body": {
                  "type": "TextualBody",
                  "value": "<h2 class=\"annotatedzoom-annotation-detail__label\">Stores</h2><div class=\"annotatedzoom-annotation-detail__content\"><p>Ocean liners required huge quantities of food, enough for all crew and passengers &mdash; the equivalent to feeding a floating city. Cunard catered for varied tastes. Provisions for one trip included 500 sheep kidneys, 400 ox tails, 800 tongues and large quantities of frogs&#39; legs, as well as geese, turkey, duck, game and &ldquo;75 heads of cattle and calfs&rdquo;.</p></div>",
                  "format": "text/html"
                },
                "target": {
                  "id": "https://iiif.vam.ac.uk/collections/O1023003/canvas/c0#xywh=3000,4000,100,200",
                  "type": "Canvas"
                }
              },
              {
                "id": "https://iiif.vam.ac.uk/collections/O1023003/annopage/p1/a9",
                "type": "Annotation",
                "motivation": "describing",
                "body": {
                  "type": "TextualBody",
                  "value": "<h2 class=\"annotatedzoom-annotation-detail__label\">Baggage</h2><div class=\"annotatedzoom-annotation-detail__content\"><p>Passengers travelling for weeks or months would bring a huge number of trunks, most of which were kept in the baggage store deep in the hull of the ship. Cabins could only accommodate smaller trunks. Louis Vuitton designed the &lsquo;steamer trunk&rsquo; specifically to fit under a first-class cabin bed. The baggage store was opened daily so that maids or stewards could collect personal items that were needed during the voyage.</p></div>",
                  "format": "text/html"
                },
                "target": {
                  "id": "https://iiif.vam.ac.uk/collections/O1023003/canvas/c0#xywh=2100,4000,100,200",
                  "type": "Canvas"
                }
              },
              {
                "id": "https://iiif.vam.ac.uk/collections/O1023003/annopage/p1/a10",
                "type": "Annotation",
                "motivation": "describing",
                "body": {
                  "type": "TextualBody",
                  "value": "<h2 class=\"annotatedzoom-annotation-detail__label\">Second-class dining saloon</h2><div class=\"annotatedzoom-annotation-detail__content\"><p>The second-class spaces, like first class, were decorated in a neo-classical style. &ldquo;The second-class accommodation on the vessel, though not so sumptuous as the first-class, is still very elaborate and comfortable&rdquo;, explained the architect. &ldquo;The dining-room, no less than 104 ft in length and extending across the whole width of the ship, is decorated with paintings adapted from panels by Pergolesi&rdquo;&mdash; the 18th-century decorative artist. (Arthur Davis, <i>The Architectural Review</i>, April 1914)</p></div>",
                  "format": "text/html"
                },
                "target": {
                  "id": "https://iiif.vam.ac.uk/collections/O1023003/canvas/c0#xywh=1500,3250,100,200",
                  "type": "Canvas"
                }
              }
            ]
          }
