{
  "@context": "http://www.w3.org/ns/anno.jsonld",
  "id": "http://example.org/page1",
  "type": "AnnotationPage",
  "partOf": {
    "id": "http://dams.llgc.org.uk/iiif/2.0/4693064/manifest.json",
    "label": "Steampunk Annotations",
    "total": 42023
  },
  "next": "http://example.org/page2",
  "startIndex": 0,
  "items": [
  {
    "type": "Annotation",
    "@context": "http://www.w3.org/ns/anno.jsonld",
    "label": "Evaluation ",
    "body": [{
    "value": "<p>Information about painting</p>",
    "type": "TextualBody",
    "purpose": "tagging",
    "format": "text/html"
    }, {
      "type": "Choice",
      "items": [{
      "value": "<p>Information about painting</p>",
      "type": "TextualBody",
      "language": "en",
      "format": "text/html"
      },{
      "value": "<p>Informations sur la peinture</p>",
      "type": "TextualBody",
      "language": "fr",
      "format": "text/html"
      }]
    }],
    "target": "http://dams.llgc.org.uk/iiif/2.0/4693064/canvas/4693069.json#xywh=984,1085,420,76"
  },
  {
    "type": "Annotation",
    "@context": "http://www.w3.org/ns/anno.jsonld",
    "label": "Curriculum ",
    "body": [{
    "value": "<p>Information about painting</p>",
    "type": "TextualBody",
    "purpose": "tagging",
    "format": "text/html"
    }, {
      "type": "Choice",
      "items": [{
      "value": "testing this list",
      "type": "TextualBody",
      "language": "en",
      "format": "text/html"
      },{
      "value": "tester cette liste",
      "type": "TextualBody",
      "language": "fr",
      "format": "text/html"
      }]
    }],
    "target": "http://dams.llgc.org.uk/iiif/2.0/4693064/canvas/4693069.json#xywh=977,1162,420,76"
  },
  {
    "type": "Annotation",
    "@context": "http://www.w3.org/ns/anno.jsonld",
    "label": "Level- A ",
    "body": {
      "value": "{\"@context\":{\"Title\":\"http://dublincore.org/documents/dcmi-terms/#terms-title\"},\"Title\":\"Line 3\"}",
      "type": "Dataset",
      "purpose": "http://www.w3.org/ns/oa#transcribing",
      "format": "text/plain"
    },
    "target": "http://dams.llgc.org.uk/iiif/2.0/4693064/canvas/4693069.json#xywh=1023,1246,299,88"
  },
  {
    "type": "Annotation",
    "@context": "http://www.w3.org/ns/anno.jsonld",
    "label": "Eastern Navajo ",
    "body": {
      "value": "{\"@context\":{\"Title\":\"http://dublincore.org/documents/dcmi-terms/#terms-title\"},\"Title\":\"Line 4\"}",
      "type": "Dataset",
      "purpose": "http://www.w3.org/ns/oa#transcribing",
      "format": "text/plain"
    },
    "target": "http://dams.llgc.org.uk/iiif/2.0/4693064/canvas/4693069.json#xywh=853,1343,602,83"
  },
  {
    "type": "Annotation",
    "@context": "http://www.w3.org/ns/anno.jsonld",
    "label": "School ",
    "body": {
      "value": "{\"@context\":{\"Title\":\"http://dublincore.org/documents/dcmi-terms/#terms-title\"},\"Title\":\"Line 5\"}",
      "type": "Dataset",
      "purpose": "http://www.w3.org/ns/oa#transcribing",
      "format": "text/plain"
    },
    "target": "http://dams.llgc.org.uk/iiif/2.0/4693064/canvas/4693069.json#xywh=1026,1434,259,83"
  },
  {
    "type": "Annotation",
    "@context": "http://www.w3.org/ns/anno.jsonld",
    "label": "Crownpoint. n: M: ",
    "body": {
      "value": "{\"@context\":{\"Title\":\"http://dublincore.org/documents/dcmi-terms/#terms-title\"},\"Title\":\"Line 6\"}",
      "type": "Dataset",
      "purpose": "http://www.w3.org/ns/oa#transcribing",
      "format": "text/plain"
    },
    "target": "http://dams.llgc.org.uk/iiif/2.0/4693064/canvas/4693069.json#xywh=855,1517,635,102"
  },
  {
    "type": "Annotation",
    "@context": "http://www.w3.org/ns/anno.jsonld",
    "label": "1933- 34: ",
    "body": {
      "value": "{\"@context\":{\"Title\":\"http://dublincore.org/documents/dcmi-terms/#terms-title\"},\"Title\":\"Line 7\"}",
      "type": "Dataset",
      "purpose": "http://www.w3.org/ns/oa#transcribing",
      "format": "text/plain"
    },
    "target": "http://dams.llgc.org.uk/iiif/2.0/4693064/canvas/4693069.json#xywh=1032,1598,324,79"
  },
  {
    "type": "Annotation",
    "@context": "http://www.w3.org/ns/anno.jsonld",
    "label": "G: Fox: ",
    "body": {
      "value": "{\"@context\":{\"Title\":\"http://dublincore.org/documents/dcmi-terms/#terms-title\"},\"Title\":\"Line 8\"}",
      "type": "Dataset",
      "purpose": "http://www.w3.org/ns/oa#transcribing",
      "format": "text/plain"
    },
    "target": "http://dams.llgc.org.uk/iiif/2.0/4693064/canvas/4693069.json#xywh=1014,1784,251,82"
  }
]
}
